{
  "images" : [
    {
      "filename" : "onboard_illustration_1.png",
      "idiom" : "universal",
      "scale" : "1x"
    },
    {
      "filename" : "onboard_illustration_1@2x.png",
      "idiom" : "universal",
      "scale" : "2x"
    },
    {
      "filename" : "onboard_illustration_1@3x.png",
      "idiom" : "universal",
      "scale" : "3x"
    }
  ],
  "info" : {
    "version" : "1",
    "author" : "xcode"
  }
}